<svg xmlns="http://www.w3.org/2000/svg" width="31" height="24">
    <path d="M9.462 16.009c.576.627 1.245.853 2.26-.36C13.345 13.712 22.742 4.221 24.428 2.4c3.257-3.514 7.833-.079 4.5 4.019C26.984 8.8 14.257 21.827 13.587 22.454c-2.114 1.979-4.414 1.962-6.466-.268C4.711 19.565 2.9 17.434.906 15.08c-2.751-3.249 1.6-7.041 4.56-3.625 1.649 1.903 1.964 2.345 3.996 4.554z"
          fill="#fff"/>
</svg>
